<?xml version="1.0" encoding="UTF-8" standalone="no"?>
<svg
   xmlns:dc="http://purl.org/dc/elements/1.1/"
   xmlns:cc="http://creativecommons.org/ns#"
   xmlns:rdf="http://www.w3.org/1999/02/22-rdf-syntax-ns#"
   xmlns:svg="http://www.w3.org/2000/svg"
   xmlns="http://www.w3.org/2000/svg"
   xmlns:sodipodi="http://sodipodi.sourceforge.net/DTD/sodipodi-0.dtd"
   xmlns:inkscape="http://www.inkscape.org/namespaces/inkscape"
   version="1.1"
   x="0px"
   y="0px"
   viewBox="0 0 65 81.25"
   enable-background="new 0 0 65 65"
   xml:space="preserve"
   id="svg58"
   sodipodi:docname="qrcode.svg"
   inkscape:version="0.92.3 (2405546, 2018-03-11)"><metadata
     id="metadata64"><rdf:RDF><cc:Work
         rdf:about=""><dc:format>image/svg+xml</dc:format><dc:type
           rdf:resource="http://purl.org/dc/dcmitype/StillImage" /></cc:Work></rdf:RDF></metadata><defs
     id="defs62" /><sodipodi:namedview
     pagecolor="#ffffff"
     bordercolor="#666666"
     borderopacity="1"
     objecttolerance="10"
     gridtolerance="10"
     guidetolerance="10"
     inkscape:pageopacity="0"
     inkscape:pageshadow="2"
     inkscape:window-width="852"
     inkscape:window-height="480"
     id="namedview60"
     showgrid="false"
     inkscape:zoom="2.9046154"
     inkscape:cx="32.5"
     inkscape:cy="40.625"
     inkscape:window-x="0"
     inkscape:window-y="0"
     inkscape:window-maximized="0"
     inkscape:current-layer="svg58" /><rect
     x="27.857"
     width="3.095"
     height="3.095"
     id="rect2" /><rect
     x="37.143"
     width="3.096"
     height="3.095"
     id="rect4" /><path
     d="M0,0v21.667h21.667V0H0z M18.571,18.571H3.095V3.095h15.476V18.571z"
     id="path6" /><polygon
     points="30.952,3.095 37.143,3.095 37.143,6.19 40.238,6.19 40.238,9.286 34.048,9.286 34.048,6.19 30.952,6.19 "
     id="polygon8" /><path
     d="M43.334,0v21.667H65V0H43.334z M61.904,18.571H46.429V3.095h15.476V18.571z"
     id="path10" /><rect
     x="6.19"
     y="6.19"
     width="9.286"
     height="9.286"
     id="rect12" /><polygon
     points="24.762,6.19 27.857,6.19 27.857,9.286 30.952,9.286 30.952,12.381 37.143,12.381 37.143,15.476 40.238,15.476   40.238,24.762 37.143,24.762 37.143,27.857 40.238,27.857 40.238,30.952 34.048,30.952 34.048,34.048 30.952,34.048 30.952,27.857   34.048,27.857 34.048,24.762 30.952,24.762 30.952,27.857 27.857,27.857 27.857,21.667 30.952,21.667 30.952,15.476 27.857,15.476   27.857,12.381 24.762,12.381 "
     id="polygon14" /><rect
     x="49.523"
     y="6.19"
     width="9.286"
     height="9.286"
     id="rect16" /><rect
     x="24.762"
     y="18.571"
     width="3.096"
     height="3.096"
     id="rect18" /><polygon
     points="9.286,24.762 15.476,24.762 15.476,27.857 18.571,27.857 18.571,30.952 21.667,30.952 21.667,34.048 18.571,34.048   18.571,37.143 21.667,37.143 21.667,34.048 24.762,34.048 24.762,37.143 27.857,37.143 27.857,40.238 34.048,40.238 34.048,37.143   37.143,37.143 37.143,43.333 34.048,43.333 34.048,46.429 24.762,46.429 24.762,40.238 9.286,40.238 9.286,37.143 12.381,37.143   12.381,34.048 15.476,34.048 15.476,30.952 12.381,30.952 12.381,27.857 9.286,27.857 "
     id="polygon20" /><rect
     x="18.571"
     y="24.762"
     width="6.19"
     height="3.096"
     id="rect22" /><polygon
     points="52.619,24.762 58.81,24.762 58.81,27.857 55.715,27.857 55.715,34.048 52.619,34.048 52.619,30.952 49.523,30.952   49.523,34.048 52.619,34.048 52.619,37.143 58.81,37.143 58.81,34.048 61.904,34.048 61.904,37.143 65,37.143 65,40.238   61.904,40.238 61.904,43.333 58.81,43.333 58.81,46.429 65,46.429 65,52.619 61.904,52.619 61.904,49.523 58.81,49.523   58.81,52.619 55.715,52.619 55.715,46.429 52.619,46.429 52.619,43.333 55.715,43.333 55.715,40.238 46.429,40.238 46.429,43.333   40.238,43.333 40.238,34.048 46.429,34.048 46.429,30.952 43.334,30.952 43.334,27.857 52.619,27.857 "
     id="polygon24" /><polygon
     points="0,27.857 6.19,27.857 6.19,30.952 12.381,30.952 12.381,34.048 6.19,34.048 6.19,37.143 3.095,37.143 3.095,30.952   0,30.952 "
     id="polygon26" /><rect
     x="24.762"
     y="27.857"
     width="3.096"
     height="6.19"
     id="rect28" /><rect
     x="61.904"
     y="27.857"
     width="3.096"
     height="6.19"
     id="rect30" /><rect
     y="37.143"
     width="3.095"
     height="3.096"
     id="rect32" /><path
     d="M0,43.333V65h21.667V43.333H0z M18.571,61.904H3.095V46.429h15.476V61.904z"
     id="path34" /><rect
     x="37.143"
     y="46.429"
     width="3.096"
     height="3.095"
     id="rect36" /><rect
     x="6.19"
     y="49.523"
     width="9.286"
     height="9.286"
     id="rect38" /><polygon
     points="24.762,49.523 27.857,49.523 27.857,52.619 30.952,52.619 30.952,55.714 34.048,55.714 34.048,58.81 37.143,58.81   37.143,61.904 30.952,61.904 30.952,65 27.857,65 27.857,55.714 24.762,55.714 "
     id="polygon40" /><rect
     x="30.952"
     y="49.523"
     width="6.19"
     height="3.096"
     id="rect42" /><polygon
     points="43.334,49.523 46.429,49.523 46.429,52.619 49.523,52.619 49.523,49.523 52.619,49.523 52.619,55.714   55.715,55.714 55.715,61.904 52.619,61.904 52.619,58.81 49.523,58.81 49.523,61.904 52.619,61.904 52.619,65 46.429,65   46.429,55.714 43.334,55.714 "
     id="polygon44" /><rect
     x="58.81"
     y="55.714"
     width="6.19"
     height="6.19"
     id="rect46" /><rect
     x="40.238"
     y="58.81"
     width="3.096"
     height="3.095"
     id="rect48" /><rect
     x="37.143"
     y="61.904"
     width="3.096"
     height="3.096"
     id="rect50" /><rect
     x="55.715"
     y="61.904"
     width="3.095"
     height="3.096"
     id="rect52" /></svg>